{
  "ExtendedData": {
    "inputs": [
      "http://sprws.post.gov.tw/PSTTP_MailQuery.asmx"
    ],
    "collectionTypes": [
      "System.Collections.Generic.Dictionary`2",
      "System.Collections.Generic.List`1"
    ],
    "namespaceMappings": [
      "*, ServicePostStatus"
    ],
    "references": [
      "ChineseConverter, {ChineseConverter, 1.0.0}",
      "Dapper, {Dapper, 2.0.90}",
      "Microsoft.AspNetCore.Http.Abstractions, {Microsoft.AspNetCore.Http.Abstractions, 2.2.0}",
      "Microsoft.AspNetCore.Http.Features, {Microsoft.AspNetCore.Http.Features, 2.2.0}",
      "Microsoft.AspNetCore.Mvc.Abstractions, {Microsoft.AspNetCore.Mvc.Abstractions, 2.2.0}",
      "Microsoft.AspNetCore.Routing.Abstractions, {Microsoft.AspNetCore.Routing.Abstractions, 2.2.0}",
      "Microsoft.Extensions.Configuration.Abstractions, {Microsoft.Extensions.Configuration.Abstractions, 5.0.0}",
      "Microsoft.Extensions.Primitives, {Microsoft.Extensions.Primitives, 5.0.0}",
      "Microsoft.Net.Http.Headers, {Microsoft.Net.Http.Headers, 2.2.0}",
      "Newtonsoft.Json, {Newtonsoft.Json, 13.0.1}",
      "NPinyin.Core, {NPinyin.Core, 3.0.0}",
      "System.Data.SqlClient, {System.Data.SqlClient, 4.8.3}",
      "System.Text.Encodings.Web, {System.Text.Encodings.Web, 4.5.0}"
    ],
    "targetFramework": "net5.0",
    "typeReuseMode": "All"
  }
}